E ave_gE stdev ave_gE/sum_gE count ; sum = 42.2704 1/acc_gamma = 1.79706e+18
-28 3.09432e-10 9.65403e-12 7.32032e-12 10
-27 3.14954e-08 4.19297e-10 7.45094e-10 10
-26 1.51677e-07 1.06838e-09 3.58827e-09 10
-25 9.72438e-07 3.52484e-09 2.30052e-08 10
-24 5.40702e-06 2.67622e-08 1.27915e-07 10
-23 2.26948e-05 1.59396e-07 5.36896e-07 10
-22 8.53471e-05 4.11941e-07 2.01908e-06 10
-21 0.000270175 1.46818e-06 6.3916e-06 10
-20 0.000776362 4.22174e-06 1.83666e-05 10
-19 0.00201134 1.2111e-05 4.75827e-05 10
-18 0.00481924 2.91173e-05 0.00011401 10
-17 0.0108037 6.20959e-05 0.000255586 10
-16 0.0230351 0.000137914 0.000544947 10
-15 0.0469574 0.000269309 0.00111088 10
-14 0.0916033 0.000514805 0.00216708 10
-13 0.172991 0.000969139 0.00409248 10
-12 0.31513 0.00180938 0.00745511 10
-11 0.550552 0.00287231 0.0130245 10
-10 0.924226 0.00503092 0.0218646 10
-9 1.49642 0.00875782 0.0354012 10
-8 2.3048 0.0130663 0.0545253 10
-7 3.34367 0.0190796 0.0791019 10
-6 4.57079 0.0244481 0.108132 10
-5 5.75157 0.0298713 0.136066 10
-4 6.58554 0.0348108 0.155796 10
-3 6.50587 0.0300405 0.153911 10
-2 5.29105 0.0249219 0.125172 10
-1 3.19744 0.0161548 0.0756426 10
0 1.07992 0.00610373 0.0255479 10
